{
  "project_info": {
    "project_number": "151993447043",
    "firebase_url": "https://telemedwebrtc.firebaseio.com",
    "project_id": "telemedwebrtc",
    "storage_bucket": "telemedwebrtc.appspot.com"
  },
  "client": [
    {
      "client_info": {
        "mobilesdk_app_id": "1:151993447043:android:80d6e92c8b765ef05561b6",
        "android_client_info": {
          "package_name": "com.minthittun.webrtcapp"
        }
      },
      "oauth_client": [
        {
          "client_id": "151993447043-o37j6c1emoh9aasdl8aik4bkk9utis8p.apps.googleusercontent.com",
          "client_type": 3
        }
      ],
      "api_key": [
        {
          "current_key": "AIzaSyAuRIgiPF6JGP6UT1oyPxPaD8UvOPDGIuc"
        }
      ],
      "services": {
        "appinvite_service": {
          "other_platform_oauth_client": [
            {
              "client_id": "151993447043-o37j6c1emoh9aasdl8aik4bkk9utis8p.apps.googleusercontent.com",
              "client_type": 3
            }
          ]
        }
      }
    }
  ],
  "configuration_version": "1"
}